…
```
## `summarise()` has grouped output by 'Month', 'Seasonr'. You can override using the `.groups` argument.
```

```
## # A tibble: 72 x 3
## # Groups:   Month [12]
##    Month Subregion        Perc_Wet
##    <fct> <chr>               <dbl>
##  1 10    Central Delta        31.9
##  2 10    Confluence           31.6
##  3 10    North Delta          33.2
##  4 10    Sacramento River     33.6
##  5 10    South Delta          26.8
##  6 10    Suisun Bay           32.9
##  7 11    Central Delta        65  
##  8 11    Confluence           58.3
##  9 11    North Delta          67  
## 10 11    Sacramento River     66.3
## # ... with 62 more rows
```
…
```
## `summarise()` has grouped output by 'Month', 'Seasonr'. You can override using the `.groups` argument.
```

```
## # A tibble: 72 x 4
## # Groups:   Month [12]
##    Month Subregion          dry   wet
##    <fct> <chr>            <int> <int>
##  1 10    Central Delta      211    99
##  2 10    Confluence         212    98
##  3 10    North Delta        207   103
##  4 10    Sacramento River   206   104
##  5 10    South Delta        227    83
##  6 10    Suisun Bay         208   102
##  7 11    Central Delta      105   195
##  8 11    Confluence         125   175
##  9 11    North Delta         99   201
## 10 11    Sacramento River   101   199
## # ... with 62 more rows
```
…
```
## `summarise()` has grouped output by 'Month', 'Season01'. You can override using the `.groups` argument.
```

```
## # A tibble: 72 x 3
## # Groups:   Month [12]
##    Month Subregion        Perc_Wet
##    <dbl> <chr>               <dbl>
##  1     1 Central Delta        63.6
##  2     1 Confluence           60.6
##  3     1 North Delta          61.6
##  4     1 Sacramento River     62.9
##  5     1 South Delta          63.2
##  6     1 Suisun Bay           62.3
##  7     2 Central Delta        63.1
##  8     2 Confluence           64.9
##  9     2 North Delta          62.1
## 10     2 Sacramento River     61.7
## # ... with 62 more rows
```
…
